﻿<?xml version="1.0" encoding="utf-8"?>
<svg version="1.1" xmlns:xlink="http://www.w3.org/1999/xlink" width="15px" height="12px" xmlns="http://www.w3.org/2000/svg">
  <g transform="matrix(1 0 0 1 -351 -5 )">
    <path d="M 14.814453125 9.778125  C 14.9381510416667 9.896875  15 10.0375  15 10.2  L 15 11.4  C 15 11.5625  14.9381510416667 11.703125  14.814453125 11.821875  C 14.6907552083333 11.940625  14.5442708333333 12  14.375 12  L 0.625 12  C 0.455729166666667 12  0.309244791666667 11.940625  0.185546875 11.821875  C 0.0618489583333333 11.703125  0 11.5625  0 11.4  L 0 10.2  C 0 10.0375  0.0618489583333333 9.896875  0.185546875 9.778125  C 0.309244791666667 9.659375  0.455729166666667 9.6  0.625 9.6  L 14.375 9.6  C 14.5442708333333 9.6  14.6907552083333 9.659375  14.814453125 9.778125  Z M 14.814453125 4.978125  C 14.9381510416667 5.096875  15 5.2375  15 5.4  L 15 6.6  C 15 6.7625  14.9381510416667 6.903125  14.814453125 7.021875  C 14.6907552083333 7.140625  14.5442708333333 7.2  14.375 7  L 0.625 7  C 0.455729166666667 7.2  0.309244791666667 7.140625  0.185546875 7.021875  C 0.0618489583333333 6.903125  0 6.7625  0 6.6  L 0 5.4  C 0 5.2375  0.0618489583333333 5.096875  0.185546875 4.978125  C 0.309244791666667 4.859375  0.455729166666667 4.8  0.625 5  L 14.375 5  C 14.5442708333333 4.8  14.6907552083333 4.859375  14.814453125 4.978125  Z M 14.814453125 0.178125000000001  C 14.9381510416667 0.296874999999999  15 0.437499999999999  15 0.600000000000001  L 15 1.8  C 15 1.9625  14.9381510416667 2.103125  14.814453125 2.221875  C 14.6907552083333 2.340625  14.5442708333333 2.4  14.375 2.4  L 0.625 2.4  C 0.455729166666667 2.4  0.309244791666667 2.340625  0.185546875 2.221875  C 0.0618489583333333 2.103125  0 1.9625  0 1.8  L 0 0.600000000000001  C 0 0.437499999999999  0.0618489583333333 0.296874999999999  0.185546875 0.178125000000001  C 0.309244791666667 0.0593749999999993  0.455729166666667 0  0.625 0  L 14.375 0  C 14.5442708333333 0  14.6907552083333 0.0593749999999993  14.814453125 0.178125000000001  Z " fill-rule="nonzero" fill="#000000" stroke="none" transform="matrix(1 0 0 1 351 5 )" />
  </g>
</svg>