﻿<?xml version="1.0" encoding="utf-8"?>
<svg version="1.1" xmlns:xlink="http://www.w3.org/1999/xlink" width="8px" height="8px" xmlns="http://www.w3.org/2000/svg">
  <g transform="matrix(1 0 0 1 -295 -170 )">
    <path d="M 4.94270833333333 4.94270833333333  C 5.203125 4.68229166666667  5.33333333333333 4.36805555555556  5.33333333333333 4  C 5.33333333333333 3.63194444444444  5.203125 3.31770833333333  4.94270833333333 3.05729166666667  C 4.68229166666667 2.796875  4.36805555555556 2.66666666666667  4 2.66666666666667  C 3.63194444444444 2.66666666666667  3.31770833333333 2.796875  3.05729166666667 3.05729166666667  C 2.796875 3.31770833333333  2.66666666666667 3.63194444444444  2.66666666666667 4  C 2.66666666666667 4.36805555555556  2.796875 4.68229166666667  3.05729166666667 4.94270833333333  C 3.31770833333333 5.203125  3.63194444444444 5.33333333333333  4 5.33333333333333  C 4.36805555555556 5.33333333333333  4.68229166666667 5.203125  4.94270833333333 4.94270833333333  Z M 7.95833333333333 3.30989583333333  C 7.98611111111111 3.34635416666667  8 3.38715277777778  8 3.43229166666667  L 8 4.58854166666667  C 8 4.63020833333333  7.98611111111111 4.67013888888889  7.95833333333333 4.70833333333333  C 7.93055555555556 4.74652777777778  7.89583333333333 4.76909722222222  7.85416666666667 4.77604166666667  L 6.890625 4.921875  C 6.82465277777778 5.109375  6.75694444444445 5.26736111111111  6.6875 5.39583333333333  C 6.80902777777778 5.56944444444444  6.99479166666667 5.80902777777778  7.24479166666667 6.11458333333333  C 7.27951388888889 6.15625  7.296875 6.19965277777778  7.296875 6.24479166666667  C 7.296875 6.28993055555556  7.28125 6.32986111111111  7.25 6.36458333333333  C 7.15625 6.49305555555556  6.984375 6.68055555555556  6.734375 6.92708333333333  C 6.484375 7.17361111111111  6.32118055555556 7.296875  6.24479166666667 7.296875  C 6.203125 7.296875  6.15798611111111 7.28125  6.109375 7.25  L 5.390625 6.6875  C 5.23784722222222 6.76736111111111  5.07986111111111 6.83333333333333  4.91666666666667 6.88541666666667  C 4.86111111111111 7.35763888888889  4.81076388888889 7.68055555555556  4.765625 7.85416666666667  C 4.74131944444444 7.95138888888889  4.67881944444444 8  4.578125 8  L 3.421875 8  C 3.37326388888889 8  3.33072916666667 7.98524305555556  3.29427083333333 7.95572916666667  C 3.2578125 7.92621527777778  3.23784722222222 7.88888888888889  3.234375 7.84375  L 3.08854166666667 6.88541666666667  C 2.91840277777778 6.82986111111111  2.76215277777778 6.765625  2.61979166666667 6.69270833333333  L 1.88541666666667 7.25  C 1.85069444444444 7.28125  1.80729166666667 7.296875  1.75520833333333 7.296875  C 1.70659722222222 7.296875  1.66319444444444 7.27777777777778  1.625 7.23958333333333  C 1.1875 6.84375  0.901041666666667 6.55208333333333  0.765625 6.36458333333333  C 0.741319444444445 6.32986111111111  0.729166666666667 6.28993055555556  0.729166666666667 6.24479166666667  C 0.729166666666667 6.203125  0.743055555555556 6.16319444444444  0.770833333333333 6.125  C 0.822916666666667 6.05208333333333  0.911458333333333 5.93663194444444  1.03645833333333 5.77864583333333  C 1.16145833333333 5.62065972222222  1.25520833333333 5.49826388888889  1.31770833333333 5.41145833333333  C 1.22395833333333 5.23784722222222  1.15277777777778 5.06597222222222  1.10416666666667 4.89583333333333  L 0.151041666666667 4.75520833333333  C 0.105902777777778 4.74826388888889  0.0694444444444444 4.7265625  0.0416666666666667 4.69010416666667  C 0.0138888888888889 4.65364583333333  0 4.61284722222222  0 4.56770833333333  L 0 3.41145833333333  C 0 3.36979166666667  0.0138888888888889 3.32986111111111  0.0416666666666667 3.29166666666667  C 0.0694444444444444 3.25347222222222  0.102430555555556 3.23090277777778  0.140625 3.22395833333333  L 1.109375 3.078125  C 1.15798611111111 2.91840277777778  1.22569444444444 2.75868055555556  1.3125 2.59895833333333  C 1.17361111111111 2.40104166666667  0.987847222222222 2.16145833333333  0.755208333333333 1.88020833333333  C 0.720486111111111 1.83854166666667  0.703125 1.796875  0.703125 1.75520833333333  C 0.703125 1.72048611111111  0.71875 1.68055555555555  0.75 1.63541666666667  C 0.840277777777778 1.51041666666667  1.01128472222222 1.32378472222222  1.26302083333333 1.07552083333333  C 1.51475694444444 0.827256944444444  1.67881944444444 0.703125  1.75520833333333 0.703125  C 1.80034722222222 0.703125  1.84548611111111 0.720486111111111  1.890625 0.755208333333333  L 2.609375 1.3125  C 2.76215277777778 1.23263888888889  2.92013888888889 1.16666666666667  3.08333333333333 1.11458333333333  C 3.13888888888889 0.642361111111111  3.18923611111111 0.319444444444444  3.234375 0.145833333333333  C 3.25868055555556 0.0486111111111107  3.32118055555556 0  3.421875 0  L 4.578125 0  C 4.62673611111111 0  4.66927083333333 0.0147569444444438  4.70572916666667 0.044270833333333  C 4.7421875 0.0737847222222214  4.76215277777778 0.111111111111111  4.765625 0.15625  L 4.91145833333333 1.11458333333333  C 5.08159722222222 1.17013888888889  5.23784722222222 1.234375  5.38020833333333 1.30729166666667  L 6.11979166666667 0.75  C 6.15104166666667 0.71875  6.19270833333333 0.703125  6.24479166666667 0.703125  C 6.28993055555556 0.703125  6.33333333333333 0.720486111111111  6.375 0.755208333333333  C 6.82291666666667 1.16840277777778  7.109375 1.46354166666667  7.234375 1.640625  C 7.25868055555556 1.66840277777778  7.27083333333333 1.70659722222222  7.27083333333333 1.75520833333333  C 7.27083333333333 1.796875  7.25694444444445 1.83680555555555  7.22916666666667 1.875  C 7.17708333333333 1.94791666666667  7.08854166666667 2.06336805555555  6.96354166666667 2.22135416666667  C 6.83854166666667 2.37934027777778  6.74479166666667 2.50173611111111  6.68229166666667 2.58854166666667  C 6.77256944444445 2.76215277777778  6.84375 2.93229166666667  6.89583333333333 3.09895833333333  L 7.84895833333333 3.24479166666667  C 7.89409722222222 3.25173611111111  7.93055555555556 3.2734375  7.95833333333333 3.30989583333333  Z " fill-rule="nonzero" fill="#000000" stroke="none" transform="matrix(1 0 0 1 295 170 )" />
  </g>
</svg>