﻿<?xml version="1.0" encoding="utf-8"?>
<svg version="1.1" xmlns:xlink="http://www.w3.org/1999/xlink" width="7px" height="8px" xmlns="http://www.w3.org/2000/svg">
  <g transform="matrix(1 0 0 1 -307 -170 )">
    <path d="M 4.27462887989204 5.25446428571429  C 4.3974358974359 5.25446428571429  4.45883940620783 5.35416666666667  4.45883940620783 5.55357142857143  L 4.45883940620783 6.49553571428571  C 4.45883940620783 6.69494047619048  4.3974358974359 6.79464285714286  4.27462887989204 6.79464285714286  C 4.20220422852002 6.79464285714286  4.13135402609087 6.76190476190476  4.06207827260459 6.69642857142857  L 4.06207827260459 5.35267857142857  C 4.13135402609087 5.28720238095238  4.20220422852002 5.25446428571429  4.27462887989204 5.25446428571429  Z M 5.84278002699055 5.25446428571429  C 5.98448043184885 5.25446428571429  6.055330634278 5.35565476190476  6.055330634278 5.55803571428571  L 6.055330634278 5.76339285714286  L 5.6302294197031 5.76339285714286  L 5.6302294197031 5.55803571428571  C 5.6302294197031 5.35565476190476  5.70107962213225 5.25446428571429  5.84278002699055 5.25446428571429  Z M 1.49257759784076 7.125  L 1.49257759784076 4.58482142857143  L 1.99797570850202 4.58482142857143  L 1.99797570850202 4.16517857142857  L 0.524291497975709 4.16517857142857  L 0.524291497975709 4.58482142857143  L 1.02024291497976 4.58482142857143  L 1.02024291497976 7.125  L 1.49257759784076 7.125  Z M 2.85290148448043 6.88392857142857  L 2.85290148448043 7.125  L 3.27327935222672 7.125  L 3.27327935222672 4.91964285714286  L 2.85290148448043 4.91964285714286  L 2.85290148448043 6.60714285714286  C 2.75843454790823 6.73214285714286  2.66869095816464 6.79464285714286  2.58367071524966 6.79464285714286  C 2.52699055330634 6.79464285714286  2.49392712550607 6.76339285714286  2.48448043184885 6.70089285714286  C 2.48133153396311 6.69196428571429  2.47975708502024 6.63988095238095  2.47975708502024 6.54464285714286  L 2.47975708502024 4.91964285714286  L 2.05937921727395 4.91964285714286  L 2.05937921727395 6.66517857142857  C 2.05937921727395 6.81101190476191  2.07197480881691 6.91964285714286  2.09716599190283 6.99107142857143  C 2.13495276653171 7.10119047619048  2.22627080521817 7.15625  2.37112010796221 7.15625  C 2.52226720647773 7.15625  2.68286099865047 7.06547619047619  2.85290148448043 6.88392857142857  Z M 4.83670715249663 6.91071428571429  C 4.86504723346829 6.83035714285714  4.87921727395412 6.68154761904762  4.87921727395412 6.46428571428571  L 4.87921727395412 5.58482142857143  C 4.87921727395412 5.36755952380952  4.86504723346829 5.22023809523809  4.83670715249663 5.14285714285714  C 4.78317588843905 4.97619047619048  4.67139001349528 4.89285714285714  4.50134952766532 4.89285714285714  C 4.34390463337832 4.89285714285714  4.19748088169141 4.97321428571429  4.06207827260459 5.13392857142857  L 4.06207827260459 4.16517857142857  L 3.6417004048583 4.16517857142857  L 3.6417004048583 7.125  L 4.06207827260459 7.125  L 4.06207827260459 6.91071428571429  C 4.20377867746289 7.07440476190476  4.3502024291498 7.15625  4.50134952766532 7.15625  C 4.67139001349528 7.15625  4.78317588843905 7.07440476190476  4.83670715249663 6.91071428571429  Z M 6.46626180836707 6.67857142857143  C 6.47255960413855 6.65178571428571  6.47570850202429 6.56547619047619  6.47570850202429 6.41964285714286  L 6.47570850202429 6.36160714285714  L 6.04588394062078 6.36160714285714  C 6.04588394062078 6.51339285714286  6.04273504273504 6.60416666666667  6.03643724696356 6.63392857142857  C 6.01439496176338 6.74107142857143  5.95141700404858 6.79464285714286  5.84750337381916 6.79464285714286  C 5.70265407107512 6.79464285714286  5.6302294197031 6.69196428571429  5.6302294197031 6.48660714285714  L 5.6302294197031 6.09821428571429  L 6.47570850202429 6.09821428571429  L 6.47570850202429 5.63839285714286  C 6.47570850202429 5.40327380952381  6.4331983805668 5.23065476190476  6.34817813765182 5.12053571428571  C 6.22537112010796 4.96875  6.05847953216374 4.89285714285714  5.84750337381916 4.89285714285714  C 5.63337831758884 4.89285714285714  5.46491228070175 4.96875  5.34210526315789 5.12053571428571  C 5.25393612235718 5.23065476190476  5.20985155195681 5.40327380952381  5.20985155195681 5.63839285714286  L 5.20985155195681 6.41071428571429  C 5.20985155195681 6.64583333333333  5.25551057130005 6.81845238095238  5.3468286099865 6.92857142857143  C 5.46963562753036 7.08035714285714  5.63967611336032 7.15625  5.85695006747638 7.15625  C 6.08367071524966 7.15625  6.25371120107962 7.07738095238095  6.36707152496626 6.91964285714286  C 6.42375168690958 6.83928571428571  6.45681511470985 6.75892857142857  6.46626180836707 6.67857142857143  Z M 3.40080971659919 2.65625  C 3.53621232568601 2.65625  3.60391363022942 2.55208333333333  3.60391363022942 2.34375  L 3.60391363022942 1.40625  C 3.60391363022942 1.20089285714286  3.53621232568601 1.09821428571429  3.40080971659919 1.09821428571429  C 3.26540710751237 1.09821428571429  3.19770580296896 1.20089285714286  3.19770580296896 1.40625  L 3.19770580296896 2.34375  C 3.19770580296896 2.55208333333333  3.26540710751237 2.65625  3.40080971659919 2.65625  Z M 6.87719298245614 4.13392857142857  C 6.95906432748538 4.46726190476191  7 4.98809523809524  7 5.69642857142857  C 7 6.39285714285714  6.95906432748538 6.91369047619048  6.87719298245614 7.25892857142857  C 6.83310841205578 7.43452380952381  6.74179037336932 7.58184523809524  6.60323886639676 7.70089285714286  C 6.4646873594242 7.81994047619048  6.30409356725146 7.88839285714286  6.12145748987854 7.90625  C 5.54206027890238 7.96875  4.66824111560954 8  3.5 8  C 2.33175888439046 8  1.45793972109762 7.96875  0.878542510121457 7.90625  C 0.695906432748538 7.88839285714286  0.534525416104364 7.81994047619048  0.394399460188934 7.70089285714286  C 0.254273504273504 7.58184523809524  0.16374269005848 7.43452380952381  0.12280701754386 7.25892857142857  C 0.0409356725146199 6.92559523809524  0 6.40476190476191  0 5.69642857142857  C 0 5  0.0409356725146199 4.47916666666667  0.12280701754386 4.13392857142857  C 0.16689158794422 3.95833333333333  0.258209626630679 3.8110119047619  0.396761133603239 3.69196428571429  C 0.535312640575798 3.57291666666667  0.697480881691408 3.50297619047619  0.883265856950067 3.48214285714286  C 1.45951417004049 3.42261904761905  2.33175888439046 3.39285714285714  3.5 3.39285714285714  C 4.66824111560954 3.39285714285714  5.54206027890238 3.42261904761905  6.12145748987854 3.48214285714286  C 6.30409356725146 3.50297619047619  6.46547458389564 3.57291666666667  6.60560053981107 3.69196428571429  C 6.7457264957265 3.8110119047619  6.83625730994152 3.95833333333333  6.87719298245614 4.13392857142857  Z M 1.96491228070175 1.17410714285714  L 2.28609986504723 0  L 2.76788124156545 0  L 2.19635627530364 1.78125  L 2.19635627530364 2.99107142857143  L 1.72402159244264 2.99107142857143  L 1.72402159244264 1.78125  C 1.67993702204229 1.5610119047619  1.58389563652722 1.24553571428571  1.43589743589744 0.834821428571429  C 1.31938821412506 0.528273809523809  1.21704903283851 0.25  1.12887989203779 0  L 1.62955465587045 0  L 1.96491228070175 1.17410714285714  Z M 3.90148448043185 0.964285714285714  C 3.98965362123257 1.07440476190476  4.03373819163293 1.2485119047619  4.03373819163293 1.48660714285714  L 4.03373819163293 2.26785714285714  C 4.03373819163293 2.50892857142857  3.98965362123257 2.68452380952381  3.90148448043185 2.79464285714286  C 3.78182636077373 2.94642857142857  3.61493477282951 3.02232142857143  3.40080971659919 3.02232142857143  C 3.18983355825461 3.02232142857143  3.02451641925326 2.94642857142857  2.90485829959514 2.79464285714286  C 2.81668915879442 2.68154761904762  2.77260458839406 2.50595238095238  2.77260458839406 2.26785714285714  L 2.77260458839406 1.48660714285714  C 2.77260458839406 1.2485119047619  2.81668915879442 1.07440476190476  2.90485829959514 0.964285714285714  C 3.02451641925326 0.8125  3.18983355825461 0.736607142857143  3.40080971659919 0.736607142857143  C 3.61493477282951 0.736607142857143  3.78182636077373 0.8125  3.90148448043185 0.964285714285714  Z M 5.18623481781376 0.763392857142857  L 5.61605937921727 0.763392857142857  L 5.61605937921727 2.99107142857143  L 5.18623481781376 2.99107142857143  L 5.18623481781376 2.74553571428571  C 5.01934322986955 2.93005952380952  4.85717498875394 3.02232142857143  4.69973009446694 3.02232142857143  C 4.5548807917229 3.02232142857143  4.46198830409357 2.9672619047619  4.42105263157895 2.85714285714286  C 4.39586144849303 2.78571428571429  4.38326585695007 2.67410714285714  4.38326585695007 2.52232142857143  L 4.38326585695007 0.763392857142857  L 4.81309041835358 0.763392857142857  L 4.81309041835358 2.40178571428571  C 4.81309041835358 2.5  4.81466486729645 2.55208333333333  4.81781376518219 2.55803571428571  C 4.82726045883941 2.6235119047619  4.86032388663968 2.65625  4.917004048583 2.65625  C 5.00202429149798 2.65625  5.09176788124156 2.5922619047619  5.18623481781376 2.46428571428571  L 5.18623481781376 0.763392857142857  Z " fill-rule="nonzero" fill="#000000" stroke="none" transform="matrix(1 0 0 1 307 170 )" />
  </g>
</svg>