﻿<?xml version="1.0" encoding="utf-8"?>
<svg version="1.1" xmlns:xlink="http://www.w3.org/1999/xlink" width="52px" height="52px" xmlns="http://www.w3.org/2000/svg">
  <g transform="matrix(1 0 0 1 -161 -86 )">
    <path d="M 39 24.1380208333333  C 39.7222222222222 24.5442708333333  40.0833333333333 25.1649305555556  40.0833333333333 26  C 40.0833333333333 26.8350694444444  39.7222222222222 27.4557291666667  39 27.8619791666667  L 20.5833333333333 38.6953125  C 20.2447916666667 38.8984375  19.8836805555556 39  19.5 39  C 19.1388888888889 39  18.7777777777778 38.9097222222222  18.4166666666667 38.7291666666667  C 17.6944444444444 38.3003472222222  17.3333333333333 37.6684027777778  18 36.8333333333333  L 18 15.1666666666667  C 17.3333333333333 14.3315972222222  17.6944444444444 13.6996527777778  18.4166666666667 13.2708333333333  C 19.1614583333333 12.8645833333333  19.8836805555556 12.8758680555556  20.5833333333333 13.3046875  L 39 24.1380208333333  Z M 41.9453125 35.2421875  C 43.5928819444444 32.4210069444444  44.4166666666667 29.3402777777778  44.4166666666667 26  C 44.4166666666667 22.6597222222222  43.5928819444444 19.5789930555556  41.9453125 16.7578125  C 40.2977430555556 13.9366319444444  38.0633680555556 11.7022569444444  35.2421875 10.0546875  C 32.4210069444444 8.40711805555556  29.3402777777778 7.58333333333334  26 7.58333333333334  C 22.6597222222222 7.58333333333334  19.5789930555556 8.40711805555556  16.7578125 10.0546875  C 13.9366319444444 11.7022569444444  11.7022569444444 13.9366319444444  10.0546875 16.7578125  C 8.40711805555556 19.5789930555556  7.58333333333333 22.6597222222222  7.58333333333333 26  C 7.58333333333333 29.3402777777778  8.40711805555556 32.4210069444444  10.0546875 35.2421875  C 11.7022569444444 38.0633680555556  13.9366319444444 40.2977430555556  16.7578125 41.9453125  C 19.5789930555556 43.5928819444444  22.6597222222222 44.4166666666667  26 44.4166666666667  C 29.3402777777778 44.4166666666667  32.4210069444444 43.5928819444444  35.2421875 41.9453125  C 38.0633680555556 40.2977430555556  40.2977430555556 38.0633680555556  41.9453125 35.2421875  Z M 48.5130208333333 12.94921875  C 50.8376736111111 16.9327256944444  52 21.2829861111111  52 26  C 52 30.7170138888889  50.8376736111111 35.0672743055556  48.5130208333333 39.05078125  C 46.1883680555556 43.0342881944444  43.0342881944444 46.1883680555556  39.05078125 48.5130208333333  C 35.0672743055556 50.8376736111111  30.7170138888889 52  26 52  C 21.2829861111111 52  16.9327256944444 50.8376736111111  12.94921875 48.5130208333333  C 8.96571180555556 46.1883680555556  5.81163194444444 43.0342881944444  3.48697916666667 39.05078125  C 1.16232638888889 35.0672743055556  0 30.7170138888889  0 26  C 0 21.2829861111111  1.16232638888889 16.9327256944444  3.48697916666667 12.94921875  C 5.81163194444444 8.96571180555556  8.96571180555556 5.81163194444444  12.94921875 3.48697916666666  C 16.9327256944444 1.16232638888888  21.2829861111111 0  26 0  C 30.7170138888889 0  35.0672743055556 1.16232638888888  39.05078125 3.48697916666666  C 43.0342881944444 5.81163194444444  46.1883680555556 8.96571180555556  48.5130208333333 12.94921875  Z " fill-rule="nonzero" fill="#000000" stroke="none" transform="matrix(1 0 0 1 161 86 )" />
  </g>
</svg>