﻿<?xml version="1.0" encoding="utf-8"?>
<svg version="1.1" xmlns:xlink="http://www.w3.org/1999/xlink" width="227px" height="227px" xmlns="http://www.w3.org/2000/svg">
  <g transform="matrix(1 0 0 1 -840 -344 )">
    <path d="M 170.25 105.371744791667  C 173.402777777778 107.145182291667  174.979166666667 109.854600694444  174.979166666667 113.5  C 174.979166666667 117.145399305556  173.402777777778 119.854817708333  170.25 121.628255208333  L 89.8541666666667 168.919921875  C 88.3763020833333 169.806640625  86.7999131944445 170.25  85.125 170.25  C 83.5486111111111 170.25  81.9722222222222 169.855902777778  80.3958333333333 169.067708333333  C 77.2430555555556 167.195746527778  75.6666666666667 164.437065972222  76 160.791666666667  L 76 66.2083333333333  C 75.6666666666667 62.5629340277778  77.2430555555556 59.8042534722222  80.3958333333333 57.9322916666667  C 83.6471354166667 56.1588541666667  86.7999131944445 56.2081163194444  89.8541666666667 58.080078125  L 170.25 105.371744791667  Z M 183.107421875 153.845703125  C 190.299696180556 141.530164930556  193.895833333333 128.081597222222  193.895833333333 113.5  C 193.895833333333 98.9184027777778  190.299696180556 85.4698350694444  183.107421875 73.154296875  C 175.915147569444 60.8387586805555  166.161241319444 51.0848524305555  153.845703125 43.892578125  C 141.530164930556 36.7003038194444  128.081597222222 33.1041666666667  113.5 33.1041666666667  C 98.9184027777778 33.1041666666667  85.4698350694445 36.7003038194444  73.154296875 43.892578125  C 60.8387586805556 51.0848524305555  51.0848524305556 60.8387586805555  43.892578125 73.154296875  C 36.7003038194444 85.4698350694444  33.1041666666667 98.9184027777778  33.1041666666667 113.5  C 33.1041666666667 128.081597222222  36.7003038194444 141.530164930556  43.892578125 153.845703125  C 51.0848524305556 166.161241319444  60.8387586805556 175.915147569444  73.154296875 183.107421875  C 85.4698350694445 190.299696180556  98.9184027777778 193.895833333333  113.5 193.895833333333  C 128.081597222222 193.895833333333  141.530164930556 190.299696180556  153.845703125 183.107421875  C 166.161241319444 175.915147569444  175.915147569444 166.161241319444  183.107421875 153.845703125  Z M 211.777994791667 56.5283203125  C 221.925998263889 73.9178602430555  227 92.9084201388889  227 113.5  C 227 134.091579861111  221.925998263889 153.082139756944  211.777994791667 170.4716796875  C 201.629991319444 187.861219618056  187.861219618056 201.629991319444  170.4716796875 211.777994791667  C 153.082139756944 221.925998263889  134.091579861111 227  113.5 227  C 92.9084201388889 227  73.9178602430556 221.925998263889  56.5283203125 211.777994791667  C 39.1387803819444 201.629991319444  25.3700086805556 187.861219618056  15.2220052083333 170.4716796875  C 5.07400173611111 153.082139756944  0 134.091579861111  0 113.5  C 0 92.9084201388889  5.07400173611111 73.9178602430555  15.2220052083333 56.5283203125  C 25.3700086805556 39.1387803819444  39.1387803819444 25.3700086805555  56.5283203125 15.2220052083333  C 73.9178602430556 5.07400173611109  92.9084201388889 0  113.5 0  C 134.091579861111 0  153.082139756944 5.07400173611109  170.4716796875 15.2220052083333  C 187.861219618056 25.3700086805555  201.629991319444 39.1387803819444  211.777994791667 56.5283203125  Z " fill-rule="nonzero" fill="#000000" stroke="none" transform="matrix(1 0 0 1 840 344 )" />
  </g>
</svg>