﻿<?xml version="1.0" encoding="utf-8"?>
<svg version="1.1" xmlns:xlink="http://www.w3.org/1999/xlink" width="630px" height="630px" xmlns="http://www.w3.org/2000/svg">
  <g transform="matrix(1 0 0 1 -25 -1106 )">
    <path d="M 25 1106  L 655 1106  L 655 1736  L 25 1736  L 25 1106  " fill-rule="nonzero" fill="#cccccc" stroke="none" />
    <path d="M 69 1150  L 611 1150  L 611 1692  L 69 1692  L 69 1150  " fill-rule="nonzero" fill="#ffffff" stroke="none" />
    <path d="M 399.85 1295  C 373.39 1295  352.6 1274.21  352.6 1247.75  C 352.6 1221.29  373.39 1200.5  399.85 1200.5  C 426.31 1200.5  447.1 1221.29  447.1 1247.75  C 447.1 1274.21  426.31 1295  399.85 1295  " fill-rule="nonzero" fill="#cccccc" stroke="none" />
    <path d="M 85 1676  L 85 1395.5  L 212.5 1268  L 391 1370  L 493 1344.5  L 595 1370  L 595 1676  L 85 1676  " fill-rule="nonzero" fill="#169bd5" stroke="none" />
  </g>
</svg>